<?xml version="1.0" encoding="UTF-8"?>
<svg xmlns="http://www.w3.org/2000/svg" xmlns:xlink="http://www.w3.org/1999/xlink" version="1.1" xml:space="preserve" style="width: 850px; height: 550px;" viewBox="0 0 850 550">
    <g id="layer_tree" transform="scale(1 1) translate(50 50) translate(0 0) scale(1 1)">
        <rect fill-opacity="0.0" x="0" y="0" height="10" width="10"/>
        <g fill-opacity="1.0" id="layer_tree_skeleton" stroke-width="1.0" stroke-linecap="round">
            <line stroke="black" y1="340.488" x2="48" x1="50" y2="340.488"/>
            <path stroke="black" fill="none" d="M 50 340.488 L 50 290.977 L 145.508 290.977"/>
            <circle stroke="red" fill="red" style="visibility: hidden; display: none;" cy="290.977" cx="145.508" r="2"/>
            <path stroke="black" fill="none" d="M 145.508 290.977 L 145.508 254.453 L 210.556 254.453"/>
            <circle stroke="red" fill="red" style="visibility: hidden; display: none;" cy="254.453" cx="210.556" r="2"/>
            <path stroke="black" fill="none" d="M 210.556 254.453 L 210.556 218.906 L 295.037 218.906"/>
            <circle stroke="red" fill="red" style="visibility: hidden; display: none;" cy="218.906" cx="295.037" r="2"/>
            <path stroke="black" fill="none" d="M 295.037 218.906 L 295.037 177.813 L 402 177.813"/>
            <circle stroke="red" fill="red" style="visibility: hidden; display: none;" cy="177.813" cx="402" r="2"/>
            <path stroke="black" fill="none" d="M 402 177.813 L 402 150.625 L 420.251 150.625"/>
            <circle stroke="red" fill="red" style="visibility: hidden; display: none;" cy="150.625" cx="420.251" r="2"/>
            <path stroke="black" fill="none" d="M 420.251 150.625 L 420.251 131.25 L 426.269 131.25"/>
            <circle stroke="red" fill="red" style="visibility: hidden; display: none;" cy="131.25" cx="426.269" r="2"/>
            <path stroke="black" fill="none" d="M 426.269 131.25 L 426.269 112.5 L 474.855 112.5"/>
            <circle stroke="red" fill="red" style="visibility: hidden; display: none;" cy="112.5" cx="474.855" r="2"/>
            <path stroke="black" fill="none" d="M 474.855 112.5 L 474.855 95 L 480.268 95"/>
            <circle stroke="red" fill="red" style="visibility: hidden; display: none;" cy="95" cx="480.268" r="2"/>
            <path stroke="black" fill="none" d="M 480.268 95 L 480.268 80 L 483.86 80"/>
            <circle stroke="red" fill="red" style="visibility: hidden; display: none;" cy="80" cx="483.86" r="2"/>
            <path stroke="black" fill="none" d="M 483.86 80 L 483.86 70 L 489.298 70"/>
            <circle stroke="red" fill="red" style="visibility: hidden; display: none;" cy="70" cx="489.298" r="2"/>
            <path stroke="black" fill="none" d="M 483.86 80 L 483.86 90 L 487.779 90"/>
            <circle stroke="red" fill="red" style="visibility: hidden; display: none;" cy="90" cx="487.779" r="2"/>
            <path stroke="black" fill="none" d="M 480.268 95 L 480.268 110 L 488.476 110"/>
            <circle stroke="red" fill="red" style="visibility: hidden; display: none;" cy="110" cx="488.476" r="2"/>
            <path stroke="black" fill="none" d="M 474.855 112.5 L 474.855 130 L 487.657 130"/>
            <circle stroke="red" fill="red" style="visibility: hidden; display: none;" cy="130" cx="487.657" r="2"/>
            <path stroke="black" fill="none" d="M 426.269 131.25 L 426.269 150 L 513.739 150"/>
            <circle stroke="red" fill="red" style="visibility: hidden; display: none;" cy="150" cx="513.739" r="2"/>
            <path stroke="black" fill="none" d="M 420.251 150.625 L 420.251 170 L 496.378 170"/>
            <circle stroke="red" fill="red" style="visibility: hidden; display: none;" cy="170" cx="496.378" r="2"/>
            <path stroke="black" fill="none" d="M 402 177.813 L 402 205 L 416.694 205"/>
            <circle stroke="red" fill="red" style="visibility: hidden; display: none;" cy="205" cx="416.694" r="2"/>
            <path stroke="black" fill="none" d="M 416.694 205 L 416.694 190 L 486.793 190"/>
            <circle stroke="red" fill="red" style="visibility: hidden; display: none;" cy="190" cx="486.793" r="2"/>
            <path stroke="black" fill="none" d="M 416.694 205 L 416.694 220 L 428.538 220"/>
            <circle stroke="red" fill="red" style="visibility: hidden; display: none;" cy="220" cx="428.538" r="2"/>
            <path stroke="black" fill="none" d="M 428.538 220 L 428.538 210 L 505.599 210"/>
            <circle stroke="red" fill="red" style="visibility: hidden; display: none;" cy="210" cx="505.599" r="2"/>
            <path stroke="black" fill="none" d="M 428.538 220 L 428.538 230 L 504.366 230"/>
            <circle stroke="red" fill="red" style="visibility: hidden; display: none;" cy="230" cx="504.366" r="2"/>
            <path stroke="black" fill="none" d="M 295.037 218.906 L 295.037 260 L 381.691 260"/>
            <circle stroke="red" fill="red" style="visibility: hidden; display: none;" cy="260" cx="381.691" r="2"/>
            <path stroke="black" fill="none" d="M 381.691 260 L 381.691 250 L 440.796 250"/>
            <circle stroke="red" fill="red" style="visibility: hidden; display: none;" cy="250" cx="440.796" r="2"/>
            <path stroke="black" fill="none" d="M 381.691 260 L 381.691 270 L 466.867 270"/>
            <circle stroke="red" fill="red" style="visibility: hidden; display: none;" cy="270" cx="466.867" r="2"/>
            <path stroke="black" fill="none" d="M 210.556 254.453 L 210.556 290 L 385.065 290"/>
            <circle stroke="red" fill="red" style="visibility: hidden; display: none;" cy="290" cx="385.065" r="2"/>
            <path stroke="black" fill="none" d="M 145.508 290.977 L 145.508 327.5 L 232.856 327.5"/>
            <circle stroke="red" fill="red" style="visibility: hidden; display: none;" cy="327.5" cx="232.856" r="2"/>
            <path stroke="black" fill="none" d="M 232.856 327.5 L 232.856 310 L 294.658 310"/>
            <circle stroke="red" fill="red" style="visibility: hidden; display: none;" cy="310" cx="294.658" r="2"/>
            <path stroke="black" fill="none" d="M 232.856 327.5 L 232.856 345 L 264.748 345"/>
            <circle stroke="red" fill="red" style="visibility: hidden; display: none;" cy="345" cx="264.748" r="2"/>
            <path stroke="black" fill="none" d="M 264.748 345 L 264.748 330 L 309.35 330"/>
            <circle stroke="red" fill="red" style="visibility: hidden; display: none;" cy="330" cx="309.35" r="2"/>
            <path stroke="black" fill="none" d="M 264.748 345 L 264.748 360 L 271.89 360"/>
            <circle stroke="red" fill="red" style="visibility: hidden; display: none;" cy="360" cx="271.89" r="2"/>
            <path stroke="black" fill="none" d="M 271.89 360 L 271.89 350 L 313.165 350"/>
            <circle stroke="red" fill="red" style="visibility: hidden; display: none;" cy="350" cx="313.165" r="2"/>
            <path stroke="black" fill="none" d="M 271.89 360 L 271.89 370 L 313.376 370"/>
            <circle stroke="red" fill="red" style="visibility: hidden; display: none;" cy="370" cx="313.376" r="2"/>
            <path stroke="black" fill="none" d="M 50 340.488 L 50 390 L 145.225 390"/>
            <circle stroke="red" fill="red" style="visibility: hidden; display: none;" cy="390" cx="145.225" r="2"/>
        </g>
        <g fill-opacity="0.5" id="layer_tree_leaflabel_background"/>
        <g fill-opacity="1.0" id="layer_tree_leaf_labels" font-family="Arial" font-style="italic" style="font-size: 14px;">
            <text x="518.739" y="134" fill="black">Saccharomyces bayanus</text>
            <text x="518.739" y="154" fill="black">Candida glabrata</text>
            <text x="518.739" y="94" fill="black">Saccharomyces paradoxus</text>
            <text x="518.739" y="114" fill="black">Saccharomyces mikatae</text>
            <text x="518.739" y="214" fill="black">Kluyveromyces lactis</text>
            <text x="518.739" y="234" fill="black">Agossypii</text>
            <text x="518.739" y="174" fill="black">Naumovia castellii</text>
            <text x="518.739" y="194" fill="black">Lachancea waltii</text>
            <text x="518.739" y="314" fill="black">Emericella nidulans</text>
            <text x="518.739" y="334" fill="black">Magnaporthe grisea</text>
            <text x="518.739" y="354" fill="black">Neurospora crassa</text>
            <text x="518.739" y="374" fill="black">Gibberella zeae</text>
            <text x="518.739" y="254" fill="black">Debaryomyces hansenii</text>
            <text x="518.739" y="274" fill="black">Candida albicans</text>
            <text x="518.739" y="294" fill="black">Yarrowia lipolytica</text>
            <text x="518.739" y="394" fill="black">Schizosaccharomyces pombe</text>
            <text x="518.739" y="74" fill="black">Saccharomyces cerevisiae</text>
        </g>
        <g id="layer_tree_align_leaf_labels" stroke="grey" stroke-width="0.4" stroke-dasharray="5,5">
            <line x1="490.157" y1="130" x2="516.239" y2="130" transform=""/>
            <line x1="516.239" y1="150" x2="516.239" y2="150" transform=""/>
            <line x1="490.279" y1="90" x2="516.239" y2="90" transform=""/>
            <line x1="490.976" y1="110" x2="516.239" y2="110" transform=""/>
            <line x1="508.099" y1="210" x2="516.239" y2="210" transform=""/>
            <line x1="506.866" y1="230" x2="516.239" y2="230" transform=""/>
            <line x1="498.878" y1="170" x2="516.239" y2="170" transform=""/>
            <line x1="489.293" y1="190" x2="516.239" y2="190" transform=""/>
            <line x1="297.158" y1="310" x2="516.239" y2="310" transform=""/>
            <line x1="311.85" y1="330" x2="516.239" y2="330" transform=""/>
            <line x1="315.665" y1="350" x2="516.239" y2="350" transform=""/>
            <line x1="315.876" y1="370" x2="516.239" y2="370" transform=""/>
            <line x1="443.296" y1="250" x2="516.239" y2="250" transform=""/>
            <line x1="469.367" y1="270" x2="516.239" y2="270" transform=""/>
            <line x1="387.565" y1="290" x2="516.239" y2="290" transform=""/>
            <line x1="147.725" y1="390" x2="516.239" y2="390" transform=""/>
            <line x1="491.798" y1="70" x2="516.239" y2="70" transform=""/>
        </g>
        <g id="layer_tree_bootstrap" font-family="Arial" font-style="normal" style="visibility: hidden; display: none; font-size: 10px;"/>
        <g id="layer_tree_branchlength" font-family="Arial" font-style="normal" style="visibility: hidden; display: none; font-size: 10px;">
            <text text-anchor="middle" x="263.757" y="307" transform="">0.618</text>
            <text text-anchor="middle" x="450.562" y="109.5" transform="">0.4859</text>
            <text text-anchor="middle" x="287.049" y="327" transform="">0.446</text>
            <text text-anchor="middle" x="423.26" y="128.25" transform="">0.0602</text>
            <text text-anchor="middle" x="292.527" y="347" transform="">0.4128</text>
            <text text-anchor="middle" x="292.633" y="367" transform="">0.4149</text>
            <text text-anchor="middle" x="477.562" y="92" transform="">0.0541</text>
            <text text-anchor="middle" x="411.243" y="247" transform="">0.591</text>
            <text text-anchor="middle" x="424.279" y="267" transform="">0.8518</text>
            <text text-anchor="middle" x="297.81" y="287" transform="">1.7451</text>
            <text text-anchor="middle" x="97.754" y="287.977" transform="">0.9551</text>
            <text text-anchor="middle" x="50" y="337.488" transform="">0</text>
            <text text-anchor="middle" x="97.6124" y="387" transform="">0.9522</text>
            <text text-anchor="middle" x="252.796" y="215.906" transform="">0.8448</text>
            <text text-anchor="middle" x="178.032" y="251.453" transform="">0.6505</text>
            <text text-anchor="middle" x="411.126" y="147.625" transform="">0.1825</text>
            <text text-anchor="middle" x="486.579" y="67" transform="">0.0544</text>
            <text text-anchor="middle" x="348.519" y="174.813" transform="">1.0696</text>
            <text text-anchor="middle" x="481.256" y="127" transform="">0.128</text>
            <text text-anchor="middle" x="470.004" y="147" transform="">0.8747</text>
            <text text-anchor="middle" x="485.82" y="87" transform="">0.0392</text>
            <text text-anchor="middle" x="484.372" y="107" transform="">0.0821</text>
            <text text-anchor="middle" x="482.064" y="77" transform="">0.0359</text>
            <text text-anchor="middle" x="467.068" y="207" transform="">0.7706</text>
            <text text-anchor="middle" x="466.452" y="227" transform="">0.7583</text>
            <text text-anchor="middle" x="409.347" y="202" transform="">0.1469</text>
            <text text-anchor="middle" x="458.315" y="167" transform="">0.7613</text>
            <text text-anchor="middle" x="451.743" y="187" transform="">0.701</text>
            <text text-anchor="middle" x="248.802" y="342" transform="">0.3189</text>
            <text text-anchor="middle" x="189.182" y="324.5" transform="">0.8735</text>
            <text text-anchor="middle" x="338.364" y="257" transform="">0.8665</text>
            <text text-anchor="middle" x="422.616" y="217" transform="">0.1184</text>
            <text text-anchor="middle" x="268.319" y="357" transform="">0.0714</text>
        </g>
        <g id="layer_tree_piecharts" fill-opacity="0.8" stroke-opacity="0.8" stroke="#FFFFFF">
            <g transform="translate(450.562 112.5)">
                <path fill="#effc00" d="M 0 0 L -10.8408 0 A 10.8408 10.8408 0 0 0 -7.0182 8.26246 Z"/>
                <path fill="#4D8963" d="M 0 0 L -7.0182 8.26246 A 10.8408 10.8408 0 1 0 -10.8408 0 Z"/>
            </g>
            <g transform="translate(423.26 131.25)">
                <path fill="#effc00" d="M 0 0 L -10 0 A 10 10 0 0 0 -8.41253 5.40641 Z"/>
                <path fill="#4D8963" d="M 0 0 L -8.41253 5.40641 A 10 10 0 1 0 -10 0 Z"/>
            </g>
            <g transform="translate(477.562 95)">
                <circle fill="#4D8963" cy="0" cx="0" r="10.3747"/>
            </g>
            <g transform="translate(482.064 80)">
                <path fill="#effc00" d="M 0 0 L -11.7839 0 A 11.7839 11.7839 0 0 0 2.89278 11.4233 Z"/>
                <path fill="#4D8963" d="M 0 0 L 2.89278 11.4233 A 11.7839 11.7839 0 1 0 -11.7839 0 Z"/>
            </g>
            <g transform="translate(97.754 290.977)">
                <path fill="#effc00" d="M 0 0 L -20.1494 0 A 20.1494 20.1494 0 0 0 -14.9492 13.5101 Z"/>
                <path fill="#4D8963" d="M 0 0 L -14.9492 13.5101 A 20.1494 20.1494 0 1 0 -20.1494 0 Z"/>
            </g>
            <g transform="translate(252.796 218.906)">
                <path fill="#effc00" d="M 0 0 L -13.698 0 A 13.698 13.698 0 0 0 -8.05146 11.0819 Z"/>
                <path fill="#4D8963" d="M 0 0 L -8.05146 11.0819 A 13.698 13.698 0 1 0 -13.698 0 Z"/>
            </g>
            <g transform="translate(178.032 254.453)">
                <path fill="#effc00" d="M 0 0 L -10.6121 0 A 10.6121 10.6121 0 0 0 0.617036 10.5941 Z"/>
                <path fill="#4D8963" d="M 0 0 L 0.617036 10.5941 A 10.6121 10.6121 0 1 0 -10.6121 0 Z"/>
            </g>
            <g transform="translate(411.126 150.625)">
                <circle fill="#9F0251" cy="0" cx="0" r="40"/>
            </g>
            <g transform="translate(348.519 177.813)">
                <circle fill="#4D8963" cy="0" cx="0" r="11.9777"/>
            </g>
        </g>
    </g>
    <g id="layer_branch_length_scale" style="visibility: visible; stroke: #808080; width: 1px;">
        <line y1="70" x2="40" x1="30" y2="70"/>
        <line y1="70" x2="30" x1="30" y2="66"/>
        <line y1="70" x2="40" x1="40" y2="66"/>
        <text text-anchor="middle" style="font-size: 8px; font-style: italic;" x="35px" y="63px">0.1</text>
    </g>
    <g id="layer_legend" font-family="Arial">
        <text style="font-size: 14px;" x="30px" y="96px">overlap with WGDs</text>
        <line stroke="darkgrey" stroke-linecap="round" y1="98.5" x2="159" x1="30" y2="98.5"/>
        <rect fill="#9F0251" stroke="white" x="30" rx="2" y="101" height="15" ry="2" width="15"/>
        <text style="font-size: 12px;" x="50px" y="113.167px">WGD-O</text>
        <rect fill="#f88ef9" stroke="white" x="30" rx="2" y="121" height="15" ry="2" width="15"/>
        <text style="font-size: 12px;" x="50px" y="133.167px">WGD-N</text>
        <rect fill="#effc00" stroke="white" x="30" rx="2" y="141" height="15" ry="2" width="15"/>
        <text style="font-size: 12px;" x="50px" y="153.167px">SSD-O</text>
        <rect fill="#4D8963" stroke="white" x="30" rx="2" y="161" height="15" ry="2" width="15"/>
        <text style="font-size: 12px;" x="50px" y="173.167px">SSD_N</text>
    </g>
    <defs>
        <filter id="simpleDropshadow" filterUnits="userSpaceOnUse">
            <feOffset dx="1" result="offOut" dy="1" in="SourceAlpha"/>
            <feGaussianBlur result="blurOut" stdDeviation="2" in="offOut"/>
            <feBlend in2="blurOut" in="SourceGraphic"/>
        </filter>
        <filter id="dropshadow" filterUnits="userSpaceOnUse">
            <feOffset dx="1" result="offsetblur" dy="1"/>
            <feGaussianBlur stdDeviation="1" in="SourceAlpha"/>
            <feMerge>
                <feMergeNode/>
                <feMergeNode in="SourceGraphic"/>
            </feMerge>
        </filter>
    </defs>
</svg>
