<?xml version="1.0" encoding="UTF-8"?>
<svg xmlns="http://www.w3.org/2000/svg" xmlns:xlink="http://www.w3.org/1999/xlink" style="width: 902px; height: 1143px;" viewBox="0 0 902 1143" version="1.1" xml:space="preserve">
    <g transform="scale(1 1) translate(68 -44) translate(0 0) scale(1 1)" id="layer_tree">
        <rect x="0" y="0" width="10" height="10" fill-opacity="0.0"/>
        <g fill-opacity="1.0" id="layer_tree_skeleton" stroke-width="1.0" stroke-linecap="round">
            <line y1="564.962" y2="564.962" x1="50" x2="43" stroke="black"/>
            <path d="M 50 564.962 L 50 70 L 131.544 70" stroke="black" fill="none"/>
            <circle r="2" cx="131.544" cy="70" stroke="red" fill="red" style="visibility: hidden; display: none;"/>
            <path d="M 50 564.962 L 50 90 L 99.1004 90" stroke="black" fill="none"/>
            <circle r="2" cx="99.1004" cy="90" stroke="red" fill="red" style="visibility: hidden; display: none;"/>
            <path d="M 50 564.962 L 50 1059.92 L 86.3409 1059.92" stroke="black" fill="none"/>
            <circle r="2" cx="86.3409" cy="1059.92" stroke="red" fill="red" style="visibility: hidden; display: none;"/>
            <path d="M 86.3409 1059.92 L 86.3409 989.85 L 99.1597 989.85" stroke="black" fill="none"/>
            <circle r="2" cx="99.1597" cy="989.85" stroke="red" fill="red" style="visibility: hidden; display: none;"/>
            <path d="M 99.1597 989.85 L 99.1597 912.2 L 117.212 912.2" stroke="black" fill="none"/>
            <circle r="2" cx="117.212" cy="912.2" stroke="red" fill="red" style="visibility: hidden; display: none;"/>
            <path d="M 117.212 912.2 L 117.212 844.399 L 137.646 844.399" stroke="black" fill="none"/>
            <circle r="2" cx="137.646" cy="844.399" stroke="red" fill="red" style="visibility: hidden; display: none;"/>
            <path d="M 137.646 844.399 L 137.646 758.798 L 161.725 758.798" stroke="black" fill="none"/>
            <circle r="2" cx="161.725" cy="758.798" stroke="red" fill="red" style="visibility: hidden; display: none;"/>
            <path d="M 161.725 758.798 L 161.725 627.44 L 189.678 627.44" stroke="black" fill="none"/>
            <circle r="2" cx="189.678" cy="627.44" stroke="red" fill="red" style="visibility: hidden; display: none;"/>
            <path d="M 189.678 627.44 L 189.678 504.88 L 207.747 504.88" stroke="black" fill="none"/>
            <circle r="2" cx="207.747" cy="504.88" stroke="red" fill="red" style="visibility: hidden; display: none;"/>
            <path d="M 207.747 504.88 L 207.747 369.058 L 248.272 369.058" stroke="black" fill="none"/>
            <circle r="2" cx="248.272" cy="369.058" stroke="red" fill="red" style="visibility: hidden; display: none;"/>
            <path d="M 248.272 369.058 L 248.272 325.615 L 269.998 325.615" stroke="black" fill="none"/>
            <circle r="2" cx="269.998" cy="325.615" stroke="red" fill="red" style="visibility: hidden; display: none;"/>
            <path d="M 269.998 325.615 L 269.998 291.231 L 347.058 291.231" stroke="black" fill="none"/>
            <circle r="2" cx="347.058" cy="291.231" stroke="red" fill="red" style="visibility: hidden; display: none;"/>
            <path d="M 347.058 291.231 L 347.058 252.461 L 397.05 252.461" stroke="black" fill="none"/>
            <circle r="2" cx="397.05" cy="252.461" stroke="red" fill="red" style="visibility: hidden; display: none;"/>
            <path d="M 397.05 252.461 L 397.05 194.922 L 409.738 194.922" stroke="black" fill="none"/>
            <circle r="2" cx="409.738" cy="194.922" stroke="red" fill="red" style="visibility: hidden; display: none;"/>
            <path d="M 409.738 194.922 L 409.738 120 L 418.46 120" stroke="black" fill="none"/>
            <circle r="2" cx="418.46" cy="120" stroke="red" fill="red" style="visibility: hidden; display: none;"/>
            <path d="M 418.46 120 L 418.46 110 L 457.98 110" stroke="black" fill="none"/>
            <circle r="2" cx="457.98" cy="110" stroke="red" fill="red" style="visibility: hidden; display: none;"/>
            <path d="M 418.46 120 L 418.46 130 L 441.739 130" stroke="black" fill="none"/>
            <circle r="2" cx="441.739" cy="130" stroke="red" fill="red" style="visibility: hidden; display: none;"/>
            <path d="M 409.738 194.922 L 409.738 269.844 L 423.847 269.844" stroke="black" fill="none"/>
            <circle r="2" cx="423.847" cy="269.844" stroke="red" fill="red" style="visibility: hidden; display: none;"/>
            <path d="M 423.847 269.844 L 423.847 249.688 L 429.977 249.688" stroke="black" fill="none"/>
            <circle r="2" cx="429.977" cy="249.688" stroke="red" fill="red" style="visibility: hidden; display: none;"/>
            <path d="M 429.977 249.688 L 429.977 229.375 L 430.632 229.375" stroke="black" fill="none"/>
            <circle r="2" cx="430.632" cy="229.375" stroke="red" fill="red" style="visibility: hidden; display: none;"/>
            <path d="M 430.632 229.375 L 430.632 208.75 L 434.485 208.75" stroke="black" fill="none"/>
            <circle r="2" cx="434.485" cy="208.75" stroke="red" fill="red" style="visibility: hidden; display: none;"/>
            <path d="M 434.485 208.75 L 434.485 187.5 L 434.654 187.5" stroke="black" fill="none"/>
            <circle r="2" cx="434.654" cy="187.5" stroke="red" fill="red" style="visibility: hidden; display: none;"/>
            <path d="M 434.654 187.5 L 434.654 165 L 434.801 165" stroke="black" fill="none"/>
            <circle r="2" cx="434.801" cy="165" stroke="red" fill="red" style="visibility: hidden; display: none;"/>
            <path d="M 434.801 165 L 434.801 150 L 435.49 150" stroke="black" fill="none"/>
            <circle r="2" cx="435.49" cy="150" stroke="red" fill="red" style="visibility: hidden; display: none;"/>
            <path d="M 434.801 165 L 434.801 180 L 434.928 180" stroke="black" fill="none"/>
            <circle r="2" cx="434.928" cy="180" stroke="red" fill="red" style="visibility: hidden; display: none;"/>
            <path d="M 434.928 180 L 434.928 170 L 435.013 170" stroke="black" fill="none"/>
            <circle r="2" cx="435.013" cy="170" stroke="red" fill="red" style="visibility: hidden; display: none;"/>
            <path d="M 434.928 180 L 434.928 190 L 435.152 190" stroke="black" fill="none"/>
            <circle r="2" cx="435.152" cy="190" stroke="red" fill="red" style="visibility: hidden; display: none;"/>
            <path d="M 434.654 187.5 L 434.654 210 L 434.74 210" stroke="black" fill="none"/>
            <circle r="2" cx="434.74" cy="210" stroke="red" fill="red" style="visibility: hidden; display: none;"/>
            <path d="M 434.485 208.75 L 434.485 230 L 434.685 230" stroke="black" fill="none"/>
            <circle r="2" cx="434.685" cy="230" stroke="red" fill="red" style="visibility: hidden; display: none;"/>
            <path d="M 430.632 229.375 L 430.632 250 L 432.392 250" stroke="black" fill="none"/>
            <circle r="2" cx="432.392" cy="250" stroke="red" fill="red" style="visibility: hidden; display: none;"/>
            <path d="M 429.977 249.688 L 429.977 270 L 430.948 270" stroke="black" fill="none"/>
            <circle r="2" cx="430.948" cy="270" stroke="red" fill="red" style="visibility: hidden; display: none;"/>
            <path d="M 423.847 269.844 L 423.847 290 L 431.21 290" stroke="black" fill="none"/>
            <circle r="2" cx="431.21" cy="290" stroke="red" fill="red" style="visibility: hidden; display: none;"/>
            <path d="M 397.05 252.461 L 397.05 310 L 424.044 310" stroke="black" fill="none"/>
            <circle r="2" cx="424.044" cy="310" stroke="red" fill="red" style="visibility: hidden; display: none;"/>
            <path d="M 347.058 291.231 L 347.058 330 L 414.412 330" stroke="black" fill="none"/>
            <circle r="2" cx="414.412" cy="330" stroke="red" fill="red" style="visibility: hidden; display: none;"/>
            <path d="M 269.998 325.615 L 269.998 360 L 332.534 360" stroke="black" fill="none"/>
            <circle r="2" cx="332.534" cy="360" stroke="red" fill="red" style="visibility: hidden; display: none;"/>
            <path d="M 332.534 360 L 332.534 350 L 370.692 350" stroke="black" fill="none"/>
            <circle r="2" cx="370.692" cy="350" stroke="red" fill="red" style="visibility: hidden; display: none;"/>
            <path d="M 332.534 360 L 332.534 370 L 360.741 370" stroke="black" fill="none"/>
            <circle r="2" cx="360.741" cy="370" stroke="red" fill="red" style="visibility: hidden; display: none;"/>
            <path d="M 248.272 369.058 L 248.272 412.5 L 267.233 412.5" stroke="black" fill="none"/>
            <circle r="2" cx="267.233" cy="412.5" stroke="red" fill="red" style="visibility: hidden; display: none;"/>
            <path d="M 267.233 412.5 L 267.233 390 L 412.303 390" stroke="black" fill="none"/>
            <circle r="2" cx="412.303" cy="390" stroke="red" fill="red" style="visibility: hidden; display: none;"/>
            <path d="M 267.233 412.5 L 267.233 435 L 309.2 435" stroke="black" fill="none"/>
            <circle r="2" cx="309.2" cy="435" stroke="red" fill="red" style="visibility: hidden; display: none;"/>
            <path d="M 309.2 435 L 309.2 420 L 332.44 420" stroke="black" fill="none"/>
            <circle r="2" cx="332.44" cy="420" stroke="red" fill="red" style="visibility: hidden; display: none;"/>
            <path d="M 332.44 420 L 332.44 410 L 449.959 410" stroke="black" fill="none"/>
            <circle r="2" cx="449.959" cy="410" stroke="red" fill="red" style="visibility: hidden; display: none;"/>
            <path d="M 332.44 420 L 332.44 430 L 431.914 430" stroke="black" fill="none"/>
            <circle r="2" cx="431.914" cy="430" stroke="red" fill="red" style="visibility: hidden; display: none;"/>
            <path d="M 309.2 435 L 309.2 450 L 379.598 450" stroke="black" fill="none"/>
            <circle r="2" cx="379.598" cy="450" stroke="red" fill="red" style="visibility: hidden; display: none;"/>
            <path d="M 207.747 504.88 L 207.747 640.703 L 225.79 640.703" stroke="black" fill="none"/>
            <circle r="2" cx="225.79" cy="640.703" stroke="red" fill="red" style="visibility: hidden; display: none;"/>
            <path d="M 225.79 640.703 L 225.79 561.406 L 239.453 561.406" stroke="black" fill="none"/>
            <circle r="2" cx="239.453" cy="561.406" stroke="red" fill="red" style="visibility: hidden; display: none;"/>
            <path d="M 239.453 561.406 L 239.453 480 L 278.846 480" stroke="black" fill="none"/>
            <circle r="2" cx="278.846" cy="480" stroke="red" fill="red" style="visibility: hidden; display: none;"/>
            <path d="M 278.846 480 L 278.846 470 L 377.107 470" stroke="black" fill="none"/>
            <circle r="2" cx="377.107" cy="470" stroke="red" fill="red" style="visibility: hidden; display: none;"/>
            <path d="M 278.846 480 L 278.846 490 L 363.812 490" stroke="black" fill="none"/>
            <circle r="2" cx="363.812" cy="490" stroke="red" fill="red" style="visibility: hidden; display: none;"/>
            <path d="M 239.453 561.406 L 239.453 642.813 L 273.73 642.813" stroke="black" fill="none"/>
            <circle r="2" cx="273.73" cy="642.813" stroke="red" fill="red" style="visibility: hidden; display: none;"/>
            <path d="M 273.73 642.813 L 273.73 595.625 L 304.508 595.625" stroke="black" fill="none"/>
            <circle r="2" cx="304.508" cy="595.625" stroke="red" fill="red" style="visibility: hidden; display: none;"/>
            <path d="M 304.508 595.625 L 304.508 540 L 369.061 540" stroke="black" fill="none"/>
            <circle r="2" cx="369.061" cy="540" stroke="red" fill="red" style="visibility: hidden; display: none;"/>
            <path d="M 369.061 540 L 369.061 520 L 383.539 520" stroke="black" fill="none"/>
            <circle r="2" cx="383.539" cy="520" stroke="red" fill="red" style="visibility: hidden; display: none;"/>
            <path d="M 383.539 520 L 383.539 510 L 399.437 510" stroke="black" fill="none"/>
            <circle r="2" cx="399.437" cy="510" stroke="red" fill="red" style="visibility: hidden; display: none;"/>
            <path d="M 383.539 520 L 383.539 530 L 405.395 530" stroke="black" fill="none"/>
            <circle r="2" cx="405.395" cy="530" stroke="red" fill="red" style="visibility: hidden; display: none;"/>
            <path d="M 369.061 540 L 369.061 560 L 381.595 560" stroke="black" fill="none"/>
            <circle r="2" cx="381.595" cy="560" stroke="red" fill="red" style="visibility: hidden; display: none;"/>
            <path d="M 381.595 560 L 381.595 550 L 401.861 550" stroke="black" fill="none"/>
            <circle r="2" cx="401.861" cy="550" stroke="red" fill="red" style="visibility: hidden; display: none;"/>
            <path d="M 381.595 560 L 381.595 570 L 407.948 570" stroke="black" fill="none"/>
            <circle r="2" cx="407.948" cy="570" stroke="red" fill="red" style="visibility: hidden; display: none;"/>
            <path d="M 304.508 595.625 L 304.508 651.25 L 332.203 651.25" stroke="black" fill="none"/>
            <circle r="2" cx="332.203" cy="651.25" stroke="red" fill="red" style="visibility: hidden; display: none;"/>
            <path d="M 332.203 651.25 L 332.203 632.5 L 346.121 632.5" stroke="black" fill="none"/>
            <circle r="2" cx="346.121" cy="632.5" stroke="red" fill="red" style="visibility: hidden; display: none;"/>
            <path d="M 346.121 632.5 L 346.121 615 L 392.577 615" stroke="black" fill="none"/>
            <circle r="2" cx="392.577" cy="615" stroke="red" fill="red" style="visibility: hidden; display: none;"/>
            <path d="M 392.577 615 L 392.577 600 L 400.659 600" stroke="black" fill="none"/>
            <circle r="2" cx="400.659" cy="600" stroke="red" fill="red" style="visibility: hidden; display: none;"/>
            <path d="M 400.659 600 L 400.659 590 L 415.873 590" stroke="black" fill="none"/>
            <circle r="2" cx="415.873" cy="590" stroke="red" fill="red" style="visibility: hidden; display: none;"/>
            <path d="M 400.659 600 L 400.659 610 L 410.077 610" stroke="black" fill="none"/>
            <circle r="2" cx="410.077" cy="610" stroke="red" fill="red" style="visibility: hidden; display: none;"/>
            <path d="M 392.577 615 L 392.577 630 L 404.711 630" stroke="black" fill="none"/>
            <circle r="2" cx="404.711" cy="630" stroke="red" fill="red" style="visibility: hidden; display: none;"/>
            <path d="M 346.121 632.5 L 346.121 650 L 400.816 650" stroke="black" fill="none"/>
            <circle r="2" cx="400.816" cy="650" stroke="red" fill="red" style="visibility: hidden; display: none;"/>
            <path d="M 332.203 651.25 L 332.203 670 L 419.398 670" stroke="black" fill="none"/>
            <circle r="2" cx="419.398" cy="670" stroke="red" fill="red" style="visibility: hidden; display: none;"/>
            <path d="M 273.73 642.813 L 273.73 690 L 408.338 690" stroke="black" fill="none"/>
            <circle r="2" cx="408.338" cy="690" stroke="red" fill="red" style="visibility: hidden; display: none;"/>
            <path d="M 225.79 640.703 L 225.79 720 L 276.541 720" stroke="black" fill="none"/>
            <circle r="2" cx="276.541" cy="720" stroke="red" fill="red" style="visibility: hidden; display: none;"/>
            <path d="M 276.541 720 L 276.541 710 L 346.104 710" stroke="black" fill="none"/>
            <circle r="2" cx="346.104" cy="710" stroke="red" fill="red" style="visibility: hidden; display: none;"/>
            <path d="M 276.541 720 L 276.541 730 L 373.112 730" stroke="black" fill="none"/>
            <circle r="2" cx="373.112" cy="730" stroke="red" fill="red" style="visibility: hidden; display: none;"/>
            <path d="M 189.678 627.44 L 189.678 750 L 351.461 750" stroke="black" fill="none"/>
            <circle r="2" cx="351.461" cy="750" stroke="red" fill="red" style="visibility: hidden; display: none;"/>
            <path d="M 161.725 758.798 L 161.725 890.156 L 185.277 890.156" stroke="black" fill="none"/>
            <circle r="2" cx="185.277" cy="890.156" stroke="red" fill="red" style="visibility: hidden; display: none;"/>
            <path d="M 185.277 890.156 L 185.277 870.313 L 218.518 870.313" stroke="black" fill="none"/>
            <circle r="2" cx="218.518" cy="870.313" stroke="red" fill="red" style="visibility: hidden; display: none;"/>
            <path d="M 218.518 870.313 L 218.518 850.625 L 272.813 850.625" stroke="black" fill="none"/>
            <circle r="2" cx="272.813" cy="850.625" stroke="red" fill="red" style="visibility: hidden; display: none;"/>
            <path d="M 272.813 850.625 L 272.813 831.25 L 327.19 831.25" stroke="black" fill="none"/>
            <circle r="2" cx="327.19" cy="831.25" stroke="red" fill="red" style="visibility: hidden; display: none;"/>
            <path d="M 327.19 831.25 L 327.19 812.5 L 396.802 812.5" stroke="black" fill="none"/>
            <circle r="2" cx="396.802" cy="812.5" stroke="red" fill="red" style="visibility: hidden; display: none;"/>
            <path d="M 396.802 812.5 L 396.802 795 L 456.361 795" stroke="black" fill="none"/>
            <circle r="2" cx="456.361" cy="795" stroke="red" fill="red" style="visibility: hidden; display: none;"/>
            <path d="M 456.361 795 L 456.361 780 L 490.16 780" stroke="black" fill="none"/>
            <circle r="2" cx="490.16" cy="780" stroke="red" fill="red" style="visibility: hidden; display: none;"/>
            <path d="M 490.16 780 L 490.16 770 L 568.586 770" stroke="black" fill="none"/>
            <circle r="2" cx="568.586" cy="770" stroke="red" fill="red" style="visibility: hidden; display: none;"/>
            <path d="M 490.16 780 L 490.16 790 L 587.091 790" stroke="black" fill="none"/>
            <circle r="2" cx="587.091" cy="790" stroke="red" fill="red" style="visibility: hidden; display: none;"/>
            <path d="M 456.361 795 L 456.361 810 L 523.175 810" stroke="black" fill="none"/>
            <circle r="2" cx="523.175" cy="810" stroke="red" fill="red" style="visibility: hidden; display: none;"/>
            <path d="M 396.802 812.5 L 396.802 830 L 574.307 830" stroke="black" fill="none"/>
            <circle r="2" cx="574.307" cy="830" stroke="red" fill="red" style="visibility: hidden; display: none;"/>
            <path d="M 327.19 831.25 L 327.19 850 L 479.61 850" stroke="black" fill="none"/>
            <circle r="2" cx="479.61" cy="850" stroke="red" fill="red" style="visibility: hidden; display: none;"/>
            <path d="M 272.813 850.625 L 272.813 870 L 533.854 870" stroke="black" fill="none"/>
            <circle r="2" cx="533.854" cy="870" stroke="red" fill="red" style="visibility: hidden; display: none;"/>
            <path d="M 218.518 870.313 L 218.518 890 L 344.264 890" stroke="black" fill="none"/>
            <circle r="2" cx="344.264" cy="890" stroke="red" fill="red" style="visibility: hidden; display: none;"/>
            <path d="M 185.277 890.156 L 185.277 910 L 330.102 910" stroke="black" fill="none"/>
            <circle r="2" cx="330.102" cy="910" stroke="red" fill="red" style="visibility: hidden; display: none;"/>
            <path d="M 137.646 844.399 L 137.646 930 L 239.199 930" stroke="black" fill="none"/>
            <circle r="2" cx="239.199" cy="930" stroke="red" fill="red" style="visibility: hidden; display: none;"/>
            <path d="M 117.212 912.2 L 117.212 980 L 135.435 980" stroke="black" fill="none"/>
            <circle r="2" cx="135.435" cy="980" stroke="red" fill="red" style="visibility: hidden; display: none;"/>
            <path d="M 135.435 980 L 135.435 960 L 193.985 960" stroke="black" fill="none"/>
            <circle r="2" cx="193.985" cy="960" stroke="red" fill="red" style="visibility: hidden; display: none;"/>
            <path d="M 193.985 960 L 193.985 950 L 218.062 950" stroke="black" fill="none"/>
            <circle r="2" cx="218.062" cy="950" stroke="red" fill="red" style="visibility: hidden; display: none;"/>
            <path d="M 193.985 960 L 193.985 970 L 222.893 970" stroke="black" fill="none"/>
            <circle r="2" cx="222.893" cy="970" stroke="red" fill="red" style="visibility: hidden; display: none;"/>
            <path d="M 135.435 980 L 135.435 1000 L 170.768 1000" stroke="black" fill="none"/>
            <circle r="2" cx="170.768" cy="1000" stroke="red" fill="red" style="visibility: hidden; display: none;"/>
            <path d="M 170.768 1000 L 170.768 990 L 226.055 990" stroke="black" fill="none"/>
            <circle r="2" cx="226.055" cy="990" stroke="red" fill="red" style="visibility: hidden; display: none;"/>
            <path d="M 170.768 1000 L 170.768 1010 L 217.506 1010" stroke="black" fill="none"/>
            <circle r="2" cx="217.506" cy="1010" stroke="red" fill="red" style="visibility: hidden; display: none;"/>
            <path d="M 99.1597 989.85 L 99.1597 1067.5 L 113.087 1067.5" stroke="black" fill="none"/>
            <circle r="2" cx="113.087" cy="1067.5" stroke="red" fill="red" style="visibility: hidden; display: none;"/>
            <path d="M 113.087 1067.5 L 113.087 1040 L 127.809 1040" stroke="black" fill="none"/>
            <circle r="2" cx="127.809" cy="1040" stroke="red" fill="red" style="visibility: hidden; display: none;"/>
            <path d="M 127.809 1040 L 127.809 1030 L 180.751 1030" stroke="black" fill="none"/>
            <circle r="2" cx="180.751" cy="1030" stroke="red" fill="red" style="visibility: hidden; display: none;"/>
            <path d="M 127.809 1040 L 127.809 1050 L 232.764 1050" stroke="black" fill="none"/>
            <circle r="2" cx="232.764" cy="1050" stroke="red" fill="red" style="visibility: hidden; display: none;"/>
            <path d="M 113.087 1067.5 L 113.087 1095 L 142.437 1095" stroke="black" fill="none"/>
            <circle r="2" cx="142.437" cy="1095" stroke="red" fill="red" style="visibility: hidden; display: none;"/>
            <path d="M 142.437 1095 L 142.437 1080 L 175.391 1080" stroke="black" fill="none"/>
            <circle r="2" cx="175.391" cy="1080" stroke="red" fill="red" style="visibility: hidden; display: none;"/>
            <path d="M 175.391 1080 L 175.391 1070 L 177.327 1070" stroke="black" fill="none"/>
            <circle r="2" cx="177.327" cy="1070" stroke="red" fill="red" style="visibility: hidden; display: none;"/>
            <path d="M 175.391 1080 L 175.391 1090 L 176 1090" stroke="black" fill="none"/>
            <circle r="2" cx="176" cy="1090" stroke="red" fill="red" style="visibility: hidden; display: none;"/>
            <path d="M 142.437 1095 L 142.437 1110 L 188.477 1110" stroke="black" fill="none"/>
            <circle r="2" cx="188.477" cy="1110" stroke="red" fill="red" style="visibility: hidden; display: none;"/>
            <path d="M 86.3409 1059.92 L 86.3409 1130 L 154.294 1130" stroke="black" fill="none"/>
            <circle r="2" cx="154.294" cy="1130" stroke="red" fill="red" style="visibility: hidden; display: none;"/>
        </g>
        <g fill-opacity="0.6" id="layer_tree_leaflabel_background">
            <rect x="589.591" y="760" width="194.833" height="20" stroke="none" fill="green"/>
            <rect x="589.591" y="240" width="194.833" height="20" stroke="none" fill="red"/>
            <rect x="589.591" y="260" width="194.833" height="20" stroke="none" fill="red"/>
            <rect x="589.591" y="140" width="194.833" height="20" stroke="none" fill="red"/>
            <rect x="589.591" y="200" width="194.833" height="20" stroke="none" fill="red"/>
            <rect x="589.591" y="220" width="194.833" height="20" stroke="none" fill="red"/>
            <rect x="589.591" y="160" width="194.833" height="20" stroke="none" fill="red"/>
            <rect x="589.591" y="180" width="194.833" height="20" stroke="none" fill="red"/>
            <rect x="589.591" y="1100" width="194.833" height="20" stroke="none" fill="yellow"/>
        </g>
        <g fill-opacity="1.0" style="font-size: 14px;" id="layer_tree_leaf_labels" font-family="Arial" font-style="normal">
            <text y="654.00006" x="592.0911" fill="black">Chondrus crispus</text>
            <text y="674.00006" x="592.0911" fill="black">Plocamiocolax pulvinata</text>
            <text y="694.00006" x="592.0911" fill="black">Cyanidioschyzon merolae</text>
            <text y="714.00006" x="592.0911" fill="black">Glaucocystis nostochinearum</text>
            <text y="734.00006" x="592.0911" fill="black">Cyanophora paradoxa</text>
            <text y="754.00006" x="592.0911" fill="black">Emiliania huxleyi</text>
            <text y="774.00006" x="592.0911" fill="black">Chlamydomonas moewusii</text>
            <text y="794.00006" x="592.0911" fill="black">Dunaliella salina</text>
            <text y="814.00006" x="592.0911" fill="black">Chlamydomonas reinhardtii</text>
            <text y="834.00006" x="592.0911" fill="black">Polytomella capuana</text>
            <text y="494.00006" x="592.0911" fill="black">Hemiselmis andersenii</text>
            <text y="514.00006" x="592.0911" fill="black">Porphyra umbilicalis</text>
            <text y="454.00006" x="592.0911" fill="black">Thalassiosira pseudonana</text>
            <text y="474.00006" x="592.0911" fill="black">Rhodomonas salina</text>
            <text y="574.00006" x="592.0911" fill="black">Pyropia haitanensis</text>
            <text y="594.00006" x="592.0911" fill="black">Gracilariophila oryzoides</text>
            <text y="534.00006" x="592.0911" fill="black">Porphyra purpurea</text>
            <text y="554.00006" x="592.0911" fill="black">Pyropia yezoensis</text>
            <text y="614.00006" x="592.0911" fill="black">Gracilariopsis andersonii</text>
            <text y="634.00006" x="592.0911" fill="black">Gracilariopsis lemaneiformis</text>
            <text y="914.00006" x="592.0911" fill="black">Pseudendoclonium akinetum</text>
            <text y="894.00006" x="592.0911" fill="black">Pycnococcus provasolii</text>
            <text y="954.0" x="592.0911" fill="black">Coccomyxa</text>
            <text y="934.00006" x="592.0911" fill="black">Oltmannsiellopsis viridis</text>
            <text y="994.0" x="592.0911" fill="black">Helicosporidium Simulium</text>
            <text y="974.0" x="592.0911" fill="black">Trebouxiophyceae</text>
            <text y="1034.0" x="592.0911" fill="black">Chlorokybus atmophyticus</text>
            <text y="1014.0" x="592.0911" fill="black">Prototheca wickerhamii</text>
            <text y="314.00006" x="592.0911" fill="black">Pylaiella littoralis</text>
            <text y="334.00006" x="592.0911" fill="black">Dictyota dichotoma</text>
            <text y="354.00006" x="592.0911" fill="black">Chattonella marina</text>
            <text y="374.00006" x="592.0911" fill="black">Heterosigma akashiwo</text>
            <text y="254.00006" x="592.0911" fill="black">Saccharina coriacea</text>
            <text y="274.00006" x="592.0911" fill="black">Saccharina angustata</text>
            <text y="854.00006" x="592.0911" fill="black">Acutodesmus obliquus</text>
            <text y="294.00006" x="592.0911" fill="black">Laminaria digitata</text>
            <text y="874.00006" x="592.0911" fill="black">Pedinomonas minor</text>
            <text y="394.00006" x="592.0911" fill="black">Ochromonas danica</text>
            <text y="414.00006" x="592.0911" fill="black">Synedra acus</text>
            <text y="434.00006" x="592.0911" fill="black">Phaeodactylum tricornutum</text>
            <text y="74.0" x="592.0911" fill="black">Ostreococcus tauri</text>
            <text y="134.00006" x="592.0911" fill="black">Desmarestia viridis</text>
            <text y="154.00006" x="592.0911" fill="black">Saccharina longipedalis</text>
            <text y="94.0" x="592.0911" fill="black">Micromonas</text>
            <text y="114.00006" x="592.0911" fill="black">Fucus vesiculosus</text>
            <text y="214.00006" x="592.0911" fill="black">Saccharina religiosa</text>
            <text y="234.00006" x="592.0911" fill="black">Saccharina japonica</text>
            <text y="174.00006" x="592.0911" fill="black">Saccharina diabolica</text>
            <text y="194.00006" x="592.0911" fill="black">Saccharina ochotensis</text>
            <text y="1134.0" x="592.0911" fill="black">Nephroselmis olivacea</text>
            <text y="1114.0" x="592.0911" fill="black">Chaetosphaeridium globosum</text>
            <text y="1074.0" x="592.0911" fill="black">Chara vulgaris</text>
            <text y="1094.0" x="592.0911" fill="black">Nitella hyalina</text>
            <text y="1054.0" x="592.0911" fill="black">Mesostigma viride</text>
        </g>
        <g style="visibility: hidden; display: none; font-size: 10px;" id="layer_tree_bootstrap" font-family="Arial">
            <text y="873.313" x="221.518" transform="">0.842</text>
            <text y="834.25" x="330.19" transform="">0.796</text>
            <text y="853.625" x="275.813" transform="">0.928</text>
            <text y="798" x="459.361" transform="">1</text>
            <text y="815.5" x="399.802" transform="">0.908</text>
            <text y="507.88" x="210.747" transform="">0.829</text>
            <text y="783" x="493.16" transform="">1</text>
            <text y="630.44" x="192.678" transform="">0.717</text>
            <text y="983" x="138.435" transform="">1</text>
            <text y="963" x="196.985" transform="">1</text>
            <text y="372.058" x="251.272" transform="">0.993</text>
            <text y="1003" x="173.768" transform="">1</text>
            <text y="1070.5" x="116.087" transform="">1</text>
            <text y="1062.92" x="89.3409" transform="">1</text>
            <text y="915.2" x="120.212" transform="">0.882</text>
            <text y="992.85" x="102.16" transform="">0.882</text>
            <text y="761.798" x="164.725" transform="">0.658</text>
            <text y="847.399" x="140.646" transform="">0.901</text>
            <text y="328.615" x="272.998" transform="">1</text>
            <text y="294.231" x="350.058" transform="">1</text>
            <text y="1098" x="145.437" transform="">1</text>
            <text y="1043" x="130.809" transform="">1</text>
            <text y="1083" x="178.391" transform="">1</text>
            <text y="272.844" x="426.847" transform="">1</text>
            <text y="123" x="421.46" transform="">0.862</text>
            <text y="197.922" x="412.738" transform="">0.862</text>
            <text y="255.461" x="400.05" transform="">1</text>
            <text y="190.5" x="437.654" transform="">0.289</text>
            <text y="211.75" x="437.485" transform="">1</text>
            <text y="232.375" x="433.632" transform="">1</text>
            <text y="252.688" x="432.977" transform="">1</text>
            <text y="168" x="437.801" transform="">0.158</text>
            <text y="183" x="437.928" transform="">0.197</text>
            <text y="363" x="335.534" transform="">1</text>
            <text y="483" x="281.846" transform="">1</text>
            <text y="564.406" x="242.453" transform="">0.651</text>
            <text y="645.813" x="276.73" transform="">1</text>
            <text y="438" x="312.2" transform="">1</text>
            <text y="415.5" x="270.233" transform="">0.875</text>
            <text y="643.703" x="228.79" transform="">0.822</text>
            <text y="423" x="335.44" transform="">1</text>
            <text y="523" x="386.539" transform="">1</text>
            <text y="563" x="384.595" transform="">1</text>
            <text y="598.625" x="307.508" transform="">1</text>
            <text y="543" x="372.061" transform="">1</text>
            <text y="893.156" x="188.277" transform="">0.586</text>
            <text y="723" x="279.541" transform="">1</text>
            <text y="603" x="403.659" transform="">1</text>
            <text y="618" x="395.577" transform="">1</text>
            <text y="635.5" x="349.121" transform="">0.592</text>
            <text y="654.25" x="335.203" transform="">1</text>
        </g>
        <g style="visibility: hidden; display: none; font-size: 10px;" id="layer_tree_branchlength" font-family="Arial">
            <text y="647" x="373.468" text-anchor="middle" transform="">0.1563</text>
            <text y="667" x="375.8" text-anchor="middle" transform="">0.2491</text>
            <text y="501.88" x="198.713" text-anchor="middle" transform="">0.0516</text>
            <text y="687" x="341.034" text-anchor="middle" transform="">0.3846</text>
            <text y="624.44" x="175.701" text-anchor="middle" transform="">0.0799</text>
            <text y="707" x="311.322" text-anchor="middle" transform="">0.1988</text>
            <text y="366.058" x="228.01" text-anchor="middle" transform="">0.1158</text>
            <text y="727" x="324.826" text-anchor="middle" transform="">0.2759</text>
            <text y="747" x="270.57" text-anchor="middle" transform="">0.4622</text>
            <text y="767" x="529.373" text-anchor="middle" transform="">0.2241</text>
            <text y="787" x="538.626" text-anchor="middle" transform="">0.2769</text>
            <text y="807" x="489.768" text-anchor="middle" transform="">0.1909</text>
            <text y="827" x="485.555" text-anchor="middle" transform="">0.5072</text>
            <text y="1056.92" x="68.1704" text-anchor="middle" transform="">0.1038</text>
            <text y="561.962" x="50" text-anchor="middle" transform="">0</text>
            <text y="909.2" x="108.186" text-anchor="middle" transform="">0.0516</text>
            <text y="986.85" x="92.7503" text-anchor="middle" transform="">0.0366</text>
            <text y="755.798" x="149.685" text-anchor="middle" transform="">0.0688</text>
            <text y="841.399" x="127.429" text-anchor="middle" transform="">0.0584</text>
            <text y="322.615" x="259.135" text-anchor="middle" transform="">0.0621</text>
            <text y="288.231" x="308.528" text-anchor="middle" transform="">0.2202</text>
            <text y="487" x="321.329" text-anchor="middle" transform="">0.2428</text>
            <text y="507" x="391.488" text-anchor="middle" transform="">0.0454</text>
            <text y="447" x="344.399" text-anchor="middle" transform="">0.2011</text>
            <text y="467" x="327.976" text-anchor="middle" transform="">0.2807</text>
            <text y="567" x="394.772" text-anchor="middle" transform="">0.0753</text>
            <text y="587" x="408.266" text-anchor="middle" transform="">0.0435</text>
            <text y="527" x="394.467" text-anchor="middle" transform="">0.0624</text>
            <text y="547" x="391.728" text-anchor="middle" transform="">0.0579</text>
            <text y="266.844" x="416.793" text-anchor="middle" transform="">0.0403</text>
            <text y="117" x="414.099" text-anchor="middle" transform="">0.0249</text>
            <text y="191.922" x="403.394" text-anchor="middle" transform="">0.0363</text>
            <text y="607" x="405.368" text-anchor="middle" transform="">0.0269</text>
            <text y="249.461" x="372.054" text-anchor="middle" transform="">0.1428</text>
            <text y="627" x="398.644" text-anchor="middle" transform="">0.0347</text>
            <text y="184.5" x="434.57" text-anchor="middle" transform="">0.0005</text>
            <text y="205.75" x="432.559" text-anchor="middle" transform="">0.011</text>
            <text y="226.375" x="430.304" text-anchor="middle" transform="">0.0019</text>
            <text y="246.688" x="426.912" text-anchor="middle" transform="">0.0175</text>
            <text y="162" x="434.728" text-anchor="middle" transform="">0.0004</text>
            <text y="177" x="434.865" text-anchor="middle" transform="">0.0004</text>
            <text y="357" x="301.266" text-anchor="middle" transform="">0.1787</text>
            <text y="307" x="410.547" text-anchor="middle" transform="">0.0771</text>
            <text y="327" x="380.735" text-anchor="middle" transform="">0.1924</text>
            <text y="347" x="351.613" text-anchor="middle" transform="">0.109</text>
            <text y="367" x="346.638" text-anchor="middle" transform="">0.0806</text>
            <text y="247" x="431.512" text-anchor="middle" transform="">0.005</text>
            <text y="267" x="430.462" text-anchor="middle" transform="">0.0028</text>
            <text y="287" x="427.528" text-anchor="middle" transform="">0.021</text>
            <text y="477" x="259.149" text-anchor="middle" transform="">0.1126</text>
            <text y="558.406" x="232.621" text-anchor="middle" transform="">0.039</text>
            <text y="639.813" x="256.591" text-anchor="middle" transform="">0.0979</text>
            <text y="432" x="288.217" text-anchor="middle" transform="">0.1199</text>
            <text y="387" x="339.768" text-anchor="middle" transform="">0.4145</text>
            <text y="409.5" x="257.753" text-anchor="middle" transform="">0.0542</text>
            <text y="407" x="391.2" text-anchor="middle" transform="">0.3358</text>
            <text y="427" x="382.177" text-anchor="middle" transform="">0.2842</text>
            <text y="67" x="90.772" text-anchor="middle" transform="">0.233</text>
            <text y="637.703" x="216.769" text-anchor="middle" transform="">0.0516</text>
            <text y="417" x="320.82" text-anchor="middle" transform="">0.0664</text>
            <text y="517" x="376.3" text-anchor="middle" transform="">0.0414</text>
            <text y="127" x="430.1" text-anchor="middle" transform="">0.0665</text>
            <text y="557" x="375.328" text-anchor="middle" transform="">0.0358</text>
            <text y="147" x="435.146" text-anchor="middle" transform="">0.002</text>
            <text y="87" x="74.5502" text-anchor="middle" transform="">0.1403</text>
            <text y="592.625" x="289.119" text-anchor="middle" transform="">0.0879</text>
            <text y="537" x="336.785" text-anchor="middle" transform="">0.1844</text>
            <text y="107" x="438.22" text-anchor="middle" transform="">0.1129</text>
            <text y="207" x="434.697" text-anchor="middle" transform="">0.0002</text>
            <text y="227" x="434.585" text-anchor="middle" transform="">0.0006</text>
            <text y="167" x="434.971" text-anchor="middle" transform="">0.0002</text>
            <text y="187" x="435.04" text-anchor="middle" transform="">0.0006</text>
            <text y="887.156" x="173.501" text-anchor="middle" transform="">0.0673</text>
            <text y="717" x="251.166" text-anchor="middle" transform="">0.145</text>
            <text y="597" x="396.618" text-anchor="middle" transform="">0.0231</text>
            <text y="612" x="369.349" text-anchor="middle" transform="">0.1327</text>
            <text y="629.5" x="339.162" text-anchor="middle" transform="">0.0398</text>
            <text y="648.25" x="318.356" text-anchor="middle" transform="">0.0791</text>
            <text y="867.313" x="201.898" text-anchor="middle" transform="">0.095</text>
            <text y="828.25" x="300.002" text-anchor="middle" transform="">0.1554</text>
            <text y="847.625" x="245.666" text-anchor="middle" transform="">0.1551</text>
            <text y="792" x="426.582" text-anchor="middle" transform="">0.1702</text>
            <text y="809.5" x="361.996" text-anchor="middle" transform="">0.1989</text>
            <text y="777" x="473.261" text-anchor="middle" transform="">0.0966</text>
            <text y="977" x="126.323" text-anchor="middle" transform="">0.0521</text>
            <text y="957" x="164.71" text-anchor="middle" transform="">0.1673</text>
            <text y="997" x="153.101" text-anchor="middle" transform="">0.101</text>
            <text y="1064.5" x="106.124" text-anchor="middle" transform="">0.0398</text>
            <text y="1092" x="127.762" text-anchor="middle" transform="">0.0839</text>
            <text y="1037" x="120.448" text-anchor="middle" transform="">0.0421</text>
            <text y="1077" x="158.914" text-anchor="middle" transform="">0.0942</text>
            <text y="907" x="257.689" text-anchor="middle" transform="">0.4138</text>
            <text y="887" x="281.391" text-anchor="middle" transform="">0.3593</text>
            <text y="947" x="206.023" text-anchor="middle" transform="">0.0688</text>
            <text y="927" x="188.422" text-anchor="middle" transform="">0.2902</text>
            <text y="987" x="198.411" text-anchor="middle" transform="">0.158</text>
            <text y="967" x="208.439" text-anchor="middle" transform="">0.0826</text>
            <text y="1027" x="154.28" text-anchor="middle" transform="">0.1513</text>
            <text y="1007" x="194.137" text-anchor="middle" transform="">0.1335</text>
            <text y="847" x="403.4" text-anchor="middle" transform="">0.4355</text>
            <text y="867" x="403.333" text-anchor="middle" transform="">0.7458</text>
            <text y="1127" x="120.317" text-anchor="middle" transform="">0.1942</text>
            <text y="1107" x="165.457" text-anchor="middle" transform="">0.1315</text>
            <text y="1067" x="176.359" text-anchor="middle" transform="">0.0055</text>
            <text y="1087" x="175.696" text-anchor="middle" transform="">0.0017</text>
            <text y="1047" x="180.286" text-anchor="middle" transform="">0.2999</text>
        </g>
        <g id="layer_tree_piecharts"/>
        <g id="layer_tree_align_leaf_labels" stroke="grey" stroke-width="0.4" stroke-dasharray="5,5">
            <line y1="650" y2="650" x1="403.316" x2="589.591" transform=""/>
            <line y1="670" y2="670" x1="421.898" x2="589.591" transform=""/>
            <line y1="690" y2="690" x1="410.838" x2="589.591" transform=""/>
            <line y1="710" y2="710" x1="348.604" x2="589.591" transform=""/>
            <line y1="730" y2="730" x1="375.612" x2="589.591" transform=""/>
            <line y1="750" y2="750" x1="353.961" x2="589.591" transform=""/>
            <line y1="770" y2="770" x1="571.086" x2="589.591" transform=""/>
            <line y1="790" y2="790" x1="589.591" x2="589.591" transform=""/>
            <line y1="810" y2="810" x1="525.675" x2="589.591" transform=""/>
            <line y1="830" y2="830" x1="576.807" x2="589.591" transform=""/>
            <line y1="490" y2="490" x1="366.312" x2="589.591" transform=""/>
            <line y1="510" y2="510" x1="401.937" x2="589.591" transform=""/>
            <line y1="450" y2="450" x1="382.098" x2="589.591" transform=""/>
            <line y1="470" y2="470" x1="379.607" x2="589.591" transform=""/>
            <line y1="570" y2="570" x1="410.448" x2="589.591" transform=""/>
            <line y1="590" y2="590" x1="418.373" x2="589.591" transform=""/>
            <line y1="530" y2="530" x1="407.895" x2="589.591" transform=""/>
            <line y1="550" y2="550" x1="404.361" x2="589.591" transform=""/>
            <line y1="610" y2="610" x1="412.577" x2="589.591" transform=""/>
            <line y1="630" y2="630" x1="407.211" x2="589.591" transform=""/>
            <line y1="910" y2="910" x1="332.602" x2="589.591" transform=""/>
            <line y1="890" y2="890" x1="346.764" x2="589.591" transform=""/>
            <line y1="950" y2="950" x1="220.562" x2="589.591" transform=""/>
            <line y1="930" y2="930" x1="241.699" x2="589.591" transform=""/>
            <line y1="990" y2="990" x1="228.555" x2="589.591" transform=""/>
            <line y1="970" y2="970" x1="225.393" x2="589.591" transform=""/>
            <line y1="1030" y2="1030" x1="183.251" x2="589.591" transform=""/>
            <line y1="1010" y2="1010" x1="220.006" x2="589.591" transform=""/>
            <line y1="310" y2="310" x1="426.544" x2="589.591" transform=""/>
            <line y1="330" y2="330" x1="416.912" x2="589.591" transform=""/>
            <line y1="350" y2="350" x1="373.192" x2="589.591" transform=""/>
            <line y1="370" y2="370" x1="363.241" x2="589.591" transform=""/>
            <line y1="250" y2="250" x1="434.892" x2="589.591" transform=""/>
            <line y1="270" y2="270" x1="433.448" x2="589.591" transform=""/>
            <line y1="850" y2="850" x1="482.11" x2="589.591" transform=""/>
            <line y1="290" y2="290" x1="433.71" x2="589.591" transform=""/>
            <line y1="870" y2="870" x1="536.354" x2="589.591" transform=""/>
            <line y1="390" y2="390" x1="414.803" x2="589.591" transform=""/>
            <line y1="410" y2="410" x1="452.459" x2="589.591" transform=""/>
            <line y1="430" y2="430" x1="434.414" x2="589.591" transform=""/>
            <line y1="70" y2="70" x1="134.044" x2="589.591" transform=""/>
            <line y1="130" y2="130" x1="444.239" x2="589.591" transform=""/>
            <line y1="150" y2="150" x1="437.99" x2="589.591" transform=""/>
            <line y1="90" y2="90" x1="101.6" x2="589.591" transform=""/>
            <line y1="110" y2="110" x1="460.48" x2="589.591" transform=""/>
            <line y1="210" y2="210" x1="437.24" x2="589.591" transform=""/>
            <line y1="230" y2="230" x1="437.185" x2="589.591" transform=""/>
            <line y1="170" y2="170" x1="437.513" x2="589.591" transform=""/>
            <line y1="190" y2="190" x1="437.652" x2="589.591" transform=""/>
            <line y1="1130" y2="1130" x1="156.794" x2="589.591" transform=""/>
            <line y1="1110" y2="1110" x1="190.977" x2="589.591" transform=""/>
            <line y1="1070" y2="1070" x1="179.827" x2="589.591" transform=""/>
            <line y1="1090" y2="1090" x1="178.5" x2="589.591" transform=""/>
            <line y1="1050" y2="1050" x1="235.264" x2="589.591" transform=""/>
        </g>
    </g>
    <g style="visibility: visible; stroke: #808080; width: 1px;" id="layer_branch_length_scale">
        <line y1="70" y2="70" x1="30" x2="65"/>
        <line y1="70" y2="66" x1="30" x2="30"/>
        <line y1="70" y2="66" x1="65" x2="65"/>
        <text y="63px" x="47.5px" text-anchor="middle" style="font-size: 8px; font-style: italic;">0.1</text>
    </g>
    <g id="layer_legend" font-family="Arial"/>
    <defs>
        <filter id="simpleDropshadow" filterUnits="userSpaceOnUse">
            <feOffset result="offOut" dx="1" dy="1" in="SourceAlpha"/>
            <feGaussianBlur stdDeviation="2" result="blurOut" in="offOut"/>
            <feBlend in2="blurOut" in="SourceGraphic"/>
        </filter>
        <filter id="dropshadow" filterUnits="userSpaceOnUse">
            <feOffset result="offsetblur" dx="1" dy="1"/>
            <feGaussianBlur stdDeviation="1" in="SourceAlpha"/>
            <feMerge>
                <feMergeNode/>
                <feMergeNode in="SourceGraphic"/>
            </feMerge>
        </filter>
    </defs>
</svg>
