<?xml version="1.0" encoding="UTF-8"?>
<svg xmlns="http://www.w3.org/2000/svg" xmlns:xlink="http://www.w3.org/1999/xlink" style="width: 808px; height: 497px;" viewBox="0 0 808 497" version="1.1" xml:space="preserve">
    <g transform="scale(1 1) translate(50 50) translate(0 0) scale(1 1)" id="layer_tree">
        <rect x="0" y="0" width="10" height="10" fill-opacity="0.0"/>
        <g fill-opacity="1.0" id="layer_tree_skeleton" stroke-width="1.0" stroke-linecap="round">
            <line y1="340.488" y2="340.488" x1="50" x2="48" stroke="black"/>
            <path d="M 50 340.488 L 50 290.977 L 145.508 290.977" stroke="black" fill="none"/>
            <circle r="2" cx="145.508" cy="290.977" stroke="red" fill="red" style="visibility: hidden; display: none;"/>
            <path d="M 145.508 290.977 L 145.508 254.453 L 210.556 254.453" stroke="black" fill="none"/>
            <circle r="2" cx="210.556" cy="254.453" stroke="red" fill="red" style="visibility: hidden; display: none;"/>
            <path d="M 210.556 254.453 L 210.556 218.906 L 295.037 218.906" stroke="black" fill="none"/>
            <circle r="2" cx="295.037" cy="218.906" stroke="red" fill="red" style="visibility: hidden; display: none;"/>
            <path d="M 295.037 218.906 L 295.037 177.813 L 402 177.813" stroke="black" fill="none"/>
            <circle r="2" cx="402" cy="177.813" stroke="red" fill="red" style="visibility: hidden; display: none;"/>
            <path d="M 402 177.813 L 402 150.625 L 420.251 150.625" stroke="black" fill="none"/>
            <circle r="2" cx="420.251" cy="150.625" stroke="red" fill="red" style="visibility: hidden; display: none;"/>
            <path d="M 420.251 150.625 L 420.251 131.25 L 426.269 131.25" stroke="black" fill="none"/>
            <circle r="2" cx="426.269" cy="131.25" stroke="red" fill="red" style="visibility: hidden; display: none;"/>
            <path d="M 426.269 131.25 L 426.269 112.5 L 474.855 112.5" stroke="black" fill="none"/>
            <circle r="2" cx="474.855" cy="112.5" stroke="red" fill="red" style="visibility: hidden; display: none;"/>
            <path d="M 474.855 112.5 L 474.855 95 L 480.268 95" stroke="black" fill="none"/>
            <circle r="2" cx="480.268" cy="95" stroke="red" fill="red" style="visibility: hidden; display: none;"/>
            <path d="M 480.268 95 L 480.268 80 L 483.86 80" stroke="black" fill="none"/>
            <circle r="2" cx="483.86" cy="80" stroke="red" fill="red" style="visibility: hidden; display: none;"/>
            <path d="M 483.86 80 L 483.86 70 L 489.298 70" stroke="black" fill="none"/>
            <circle r="2" cx="489.298" cy="70" stroke="red" fill="red" style="visibility: hidden; display: none;"/>
            <path d="M 483.86 80 L 483.86 90 L 487.779 90" stroke="black" fill="none"/>
            <circle r="2" cx="487.779" cy="90" stroke="red" fill="red" style="visibility: hidden; display: none;"/>
            <path d="M 480.268 95 L 480.268 110 L 488.476 110" stroke="black" fill="none"/>
            <circle r="2" cx="488.476" cy="110" stroke="red" fill="red" style="visibility: hidden; display: none;"/>
            <path d="M 474.855 112.5 L 474.855 130 L 487.657 130" stroke="black" fill="none"/>
            <circle r="2" cx="487.657" cy="130" stroke="red" fill="red" style="visibility: hidden; display: none;"/>
            <path d="M 426.269 131.25 L 426.269 150 L 513.739 150" stroke="black" fill="none"/>
            <circle r="2" cx="513.739" cy="150" stroke="red" fill="red" style="visibility: hidden; display: none;"/>
            <path d="M 420.251 150.625 L 420.251 170 L 496.378 170" stroke="black" fill="none"/>
            <circle r="2" cx="496.378" cy="170" stroke="red" fill="red" style="visibility: hidden; display: none;"/>
            <path d="M 402 177.813 L 402 205 L 416.694 205" stroke="black" fill="none"/>
            <circle r="2" cx="416.694" cy="205" stroke="red" fill="red" style="visibility: hidden; display: none;"/>
            <path d="M 416.694 205 L 416.694 190 L 486.793 190" stroke="black" fill="none"/>
            <circle r="2" cx="486.793" cy="190" stroke="red" fill="red" style="visibility: hidden; display: none;"/>
            <path d="M 416.694 205 L 416.694 220 L 428.538 220" stroke="black" fill="none"/>
            <circle r="2" cx="428.538" cy="220" stroke="red" fill="red" style="visibility: hidden; display: none;"/>
            <path d="M 428.538 220 L 428.538 210 L 505.599 210" stroke="black" fill="none"/>
            <circle r="2" cx="505.599" cy="210" stroke="red" fill="red" style="visibility: hidden; display: none;"/>
            <path d="M 428.538 220 L 428.538 230 L 504.366 230" stroke="black" fill="none"/>
            <circle r="2" cx="504.366" cy="230" stroke="red" fill="red" style="visibility: hidden; display: none;"/>
            <path d="M 295.037 218.906 L 295.037 260 L 381.691 260" stroke="black" fill="none"/>
            <circle r="2" cx="381.691" cy="260" stroke="red" fill="red" style="visibility: hidden; display: none;"/>
            <path d="M 381.691 260 L 381.691 250 L 440.796 250" stroke="black" fill="none"/>
            <circle r="2" cx="440.796" cy="250" stroke="red" fill="red" style="visibility: hidden; display: none;"/>
            <path d="M 381.691 260 L 381.691 270 L 466.867 270" stroke="black" fill="none"/>
            <circle r="2" cx="466.867" cy="270" stroke="red" fill="red" style="visibility: hidden; display: none;"/>
            <path d="M 210.556 254.453 L 210.556 290 L 385.065 290" stroke="black" fill="none"/>
            <circle r="2" cx="385.065" cy="290" stroke="red" fill="red" style="visibility: hidden; display: none;"/>
            <path d="M 145.508 290.977 L 145.508 327.5 L 232.856 327.5" stroke="black" fill="none"/>
            <circle r="2" cx="232.856" cy="327.5" stroke="red" fill="red" style="visibility: hidden; display: none;"/>
            <path d="M 232.856 327.5 L 232.856 310 L 294.658 310" stroke="black" fill="none"/>
            <circle r="2" cx="294.658" cy="310" stroke="red" fill="red" style="visibility: hidden; display: none;"/>
            <path d="M 232.856 327.5 L 232.856 345 L 264.748 345" stroke="black" fill="none"/>
            <circle r="2" cx="264.748" cy="345" stroke="red" fill="red" style="visibility: hidden; display: none;"/>
            <path d="M 264.748 345 L 264.748 330 L 309.35 330" stroke="black" fill="none"/>
            <circle r="2" cx="309.35" cy="330" stroke="red" fill="red" style="visibility: hidden; display: none;"/>
            <path d="M 264.748 345 L 264.748 360 L 271.89 360" stroke="black" fill="none"/>
            <circle r="2" cx="271.89" cy="360" stroke="red" fill="red" style="visibility: hidden; display: none;"/>
            <path d="M 271.89 360 L 271.89 350 L 313.165 350" stroke="black" fill="none"/>
            <circle r="2" cx="313.165" cy="350" stroke="red" fill="red" style="visibility: hidden; display: none;"/>
            <path d="M 271.89 360 L 271.89 370 L 313.376 370" stroke="black" fill="none"/>
            <circle r="2" cx="313.376" cy="370" stroke="red" fill="red" style="visibility: hidden; display: none;"/>
            <path d="M 50 340.488 L 50 390 L 145.225 390" stroke="black" fill="none"/>
            <circle r="2" cx="145.225" cy="390" stroke="red" fill="red" style="visibility: hidden; display: none;"/>
        </g>
        <g fill-opacity="0.5" id="layer_tree_leaflabel_background"/>
        <g fill-opacity="1.0" style="font-size: 14px;" id="layer_tree_leaf_labels" font-family="Arial" font-style="italic">
            <text y="134.0" x="518.7392" fill="black">Saccharomyces bayanus</text>
            <text y="154.0" x="518.7392" fill="black">Candida glabrata</text>
            <text y="94.0" x="518.7392" fill="black">Saccharomyces paradoxus</text>
            <text y="114.0" x="518.7392" fill="black">Saccharomyces mikatae</text>
            <text y="214.0" x="518.7392" fill="black">Kluyveromyces lactis</text>
            <text y="234.0" x="518.7392" fill="black">Agossypii</text>
            <text y="174.0" x="518.7392" fill="black">Naumovia castellii</text>
            <text y="194.0" x="518.7392" fill="black">Lachancea waltii</text>
            <text y="314.0" x="518.7392" fill="black">Emericella nidulans</text>
            <text y="334.0" x="518.7392" fill="black">Magnaporthe grisea</text>
            <text y="354.0" x="518.7392" fill="black">Neurospora crassa</text>
            <text y="374.0" x="518.7392" fill="black">Gibberella zeae</text>
            <text y="254.0" x="518.7392" fill="black">Debaryomyces hansenii</text>
            <text y="274.0" x="518.7392" fill="black">Candida albicans</text>
            <text y="294.0" x="518.7392" fill="black">Yarrowia lipolytica</text>
            <text y="394.0" x="518.7392" fill="black">Schizosaccharomyces pombe</text>
            <text y="74.0" x="518.7392" fill="black">Saccharomyces cerevisiae</text>
        </g>
        <g id="layer_tree_align_leaf_labels" stroke="grey" stroke-width="0.4" stroke-dasharray="5,5">
            <line y1="130" y2="130" x1="490.157" x2="516.239" transform=""/>
            <line y1="150" y2="150" x1="516.239" x2="516.239" transform=""/>
            <line y1="90" y2="90" x1="490.279" x2="516.239" transform=""/>
            <line y1="110" y2="110" x1="490.976" x2="516.239" transform=""/>
            <line y1="210" y2="210" x1="508.099" x2="516.239" transform=""/>
            <line y1="230" y2="230" x1="506.866" x2="516.239" transform=""/>
            <line y1="170" y2="170" x1="498.878" x2="516.239" transform=""/>
            <line y1="190" y2="190" x1="489.293" x2="516.239" transform=""/>
            <line y1="310" y2="310" x1="297.158" x2="516.239" transform=""/>
            <line y1="330" y2="330" x1="311.85" x2="516.239" transform=""/>
            <line y1="350" y2="350" x1="315.665" x2="516.239" transform=""/>
            <line y1="370" y2="370" x1="315.876" x2="516.239" transform=""/>
            <line y1="250" y2="250" x1="443.296" x2="516.239" transform=""/>
            <line y1="270" y2="270" x1="469.367" x2="516.239" transform=""/>
            <line y1="290" y2="290" x1="387.565" x2="516.239" transform=""/>
            <line y1="390" y2="390" x1="147.725" x2="516.239" transform=""/>
            <line y1="70" y2="70" x1="491.798" x2="516.239" transform=""/>
        </g>
        <g style="visibility: hidden; display: none; font-size: 10px;" id="layer_tree_bootstrap" font-family="Arial"/>
        <g style="visibility: hidden; display: none; font-size: 10px;" id="layer_tree_branchlength" font-family="Arial">
            <text y="109.5" x="450.562" text-anchor="middle" transform="">0.4859</text>
            <text y="307" x="263.757" text-anchor="middle" transform="">0.618</text>
            <text y="327" x="287.049" text-anchor="middle" transform="">0.446</text>
            <text y="128.25" x="423.26" text-anchor="middle" transform="">0.0602</text>
            <text y="347" x="292.527" text-anchor="middle" transform="">0.4128</text>
            <text y="367" x="292.633" text-anchor="middle" transform="">0.4149</text>
            <text y="92" x="477.562" text-anchor="middle" transform="">0.0541</text>
            <text y="247" x="411.243" text-anchor="middle" transform="">0.591</text>
            <text y="267" x="424.279" text-anchor="middle" transform="">0.8518</text>
            <text y="287" x="297.81" text-anchor="middle" transform="">1.7451</text>
            <text y="287.977" x="97.754" text-anchor="middle" transform="">0.9551</text>
            <text y="337.488" x="50" text-anchor="middle" transform="">0</text>
            <text y="387" x="97.6124" text-anchor="middle" transform="">0.9522</text>
            <text y="215.906" x="252.796" text-anchor="middle" transform="">0.8448</text>
            <text y="251.453" x="178.032" text-anchor="middle" transform="">0.6505</text>
            <text y="147.625" x="411.126" text-anchor="middle" transform="">0.1825</text>
            <text y="67" x="486.579" text-anchor="middle" transform="">0.0544</text>
            <text y="174.813" x="348.519" text-anchor="middle" transform="">1.0696</text>
            <text y="127" x="481.256" text-anchor="middle" transform="">0.128</text>
            <text y="147" x="470.004" text-anchor="middle" transform="">0.8747</text>
            <text y="87" x="485.82" text-anchor="middle" transform="">0.0392</text>
            <text y="107" x="484.372" text-anchor="middle" transform="">0.0821</text>
            <text y="77" x="482.064" text-anchor="middle" transform="">0.0359</text>
            <text y="207" x="467.068" text-anchor="middle" transform="">0.7706</text>
            <text y="227" x="466.452" text-anchor="middle" transform="">0.7583</text>
            <text y="202" x="409.347" text-anchor="middle" transform="">0.1469</text>
            <text y="167" x="458.315" text-anchor="middle" transform="">0.7613</text>
            <text y="187" x="451.743" text-anchor="middle" transform="">0.701</text>
            <text y="342" x="248.802" text-anchor="middle" transform="">0.3189</text>
            <text y="324.5" x="189.182" text-anchor="middle" transform="">0.8735</text>
            <text y="257" x="338.364" text-anchor="middle" transform="">0.8665</text>
            <text y="217" x="422.616" text-anchor="middle" transform="">0.1184</text>
            <text y="357" x="268.319" text-anchor="middle" transform="">0.0714</text>
        </g>
        <g id="layer_tree_piecharts" fill-opacity="0.8" stroke-opacity="0.8" stroke="#FFFFFF">
            <g transform="translate(450.562 112.5)">
                <path d="M 0 0 L -10.8408 0 A 10.8408 10.8408 0 0 0 -7.0182 8.26246 Z" fill="#effc00"/>
                <path d="M 0 0 L -7.0182 8.26246 A 10.8408 10.8408 0 1 0 -10.8408 0 Z" fill="#4D8963"/>
            </g>
            <g transform="translate(423.26 131.25)">
                <path d="M 0 0 L -10 0 A 10 10 0 0 0 -8.41253 5.40641 Z" fill="#effc00"/>
                <path d="M 0 0 L -8.41253 5.40641 A 10 10 0 1 0 -10 0 Z" fill="#4D8963"/>
            </g>
            <g transform="translate(477.562 95)">
                <circle r="10.3747" cx="0" cy="0" fill="#4D8963"/>
            </g>
            <g transform="translate(482.064 80)">
                <path d="M 0 0 L -11.7839 0 A 11.7839 11.7839 0 0 0 2.89278 11.4233 Z" fill="#effc00"/>
                <path d="M 0 0 L 2.89278 11.4233 A 11.7839 11.7839 0 1 0 -11.7839 0 Z" fill="#4D8963"/>
            </g>
            <g transform="translate(97.754 290.977)">
                <path d="M 0 0 L -20.1494 0 A 20.1494 20.1494 0 0 0 -14.9492 13.5101 Z" fill="#effc00"/>
                <path d="M 0 0 L -14.9492 13.5101 A 20.1494 20.1494 0 1 0 -20.1494 0 Z" fill="#4D8963"/>
            </g>
            <g transform="translate(252.796 218.906)">
                <path d="M 0 0 L -13.698 0 A 13.698 13.698 0 0 0 -8.05146 11.0819 Z" fill="#effc00"/>
                <path d="M 0 0 L -8.05146 11.0819 A 13.698 13.698 0 1 0 -13.698 0 Z" fill="#4D8963"/>
            </g>
            <g transform="translate(178.032 254.453)">
                <path d="M 0 0 L -10.6121 0 A 10.6121 10.6121 0 0 0 0.617036 10.5941 Z" fill="#effc00"/>
                <path d="M 0 0 L 0.617036 10.5941 A 10.6121 10.6121 0 1 0 -10.6121 0 Z" fill="#4D8963"/>
            </g>
            <g transform="translate(411.126 150.625)">
                <circle r="40" cx="0" cy="0" fill="#9F0251"/>
            </g>
            <g transform="translate(348.519 177.813)">
                <circle r="11.9777" cx="0" cy="0" fill="#4D8963"/>
            </g>
        </g>
    </g>
    <g style="visibility: visible; stroke: #808080; width: 1px;" id="layer_branch_length_scale">
        <line y1="70" y2="70" x1="30" x2="40"/>
        <line y1="70" y2="66" x1="30" x2="30"/>
        <line y1="70" y2="66" x1="40" x2="40"/>
        <text y="63px" x="35px" text-anchor="middle" style="font-size: 8px; font-style: italic;">0.1</text>
    </g>
    <g id="layer_legend" font-family="Arial">
        <text style="font-size: 14px;" y="96px" x="30px">overlap with WGDs</text>
        <line y1="98.5" y2="98.5" x1="30" x2="159" stroke="darkgrey" stroke-linecap="round"/>
        <rect x="30" y="101" width="15" rx="2" height="15" ry="2" fill="#9F0251" stroke="white"/>
        <text style="font-size: 12px;" y="113.167px" x="50px">WGD-O</text>
        <rect x="30" y="121" width="15" rx="2" height="15" ry="2" fill="#f88ef9" stroke="white"/>
        <text style="font-size: 12px;" y="133.167px" x="50px">WGD-N</text>
        <rect x="30" y="141" width="15" rx="2" height="15" ry="2" fill="#effc00" stroke="white"/>
        <text style="font-size: 12px;" y="153.167px" x="50px">SSD-O</text>
        <rect x="30" y="161" width="15" rx="2" height="15" ry="2" fill="#4D8963" stroke="white"/>
        <text style="font-size: 12px;" y="173.167px" x="50px">SSD_N</text>
    </g>
    <defs>
        <filter id="simpleDropshadow" filterUnits="userSpaceOnUse">
            <feOffset result="offOut" dx="1" dy="1" in="SourceAlpha"/>
            <feGaussianBlur stdDeviation="2" result="blurOut" in="offOut"/>
            <feBlend in2="blurOut" in="SourceGraphic"/>
        </filter>
        <filter id="dropshadow" filterUnits="userSpaceOnUse">
            <feOffset result="offsetblur" dx="1" dy="1"/>
            <feGaussianBlur stdDeviation="1" in="SourceAlpha"/>
            <feMerge>
                <feMergeNode/>
                <feMergeNode in="SourceGraphic"/>
            </feMerge>
        </filter>
    </defs>
</svg>
